{
  "days": {
    "good": {
      "low": 20,
      "high": 1000,
      "outlier": -1
    },
    "bad": {
      "low": 7,
      "high": 19
    },
    "crit": {
      "low": 0,
      "high": 6
    }
  },
  "iaq": {
    "good": {
      "low": -1,
      "high": 100
    },
    "bad": {
      "low": 101,
      "high": 250
    },
    "crit": {
      "low": 251,
      "high": 1000
    }
  },
  "ttp": {
    "good": {
      "low": 19,
      "high": 24
    },
    "bad": {
      "low": 10,
      "high": 18
    },
    "bad2": {
      "low": 25,
      "high": 32
    },
    "crit": {
      "low": -100,
      "high": 9
    },
    "crit2": {
      "low": 33,
      "high": 100
    }
  },
  "hhm": {
    "good": {
      "low": 20,
      "high": 40
    },
    "bad": {
      "low": 10,
      "high": 19
    },
    "bad2": {
      "low": 41,
      "high": 70
    },
    "crit": {
      "low": -1,
      "high": 9
    },
    "crit2": {
      "low": 71,
      "high": 101
    }
  },
  "co2": {
    "good": {
      "low": null,
      "high": 350
    },
    "bad": {
      "low": 351,
      "high": 1000
    },
    "crit": {
      "low": 1001,
      "high": 100000
    }
  }
}
